{
  "BurstVersion": "12fd8c57-ac57-41e8-88f3-e2a61ac3563b",
  "Assemblies": [
    {
      "FullName": "Unity.Burst, Version=0.0.0.0, Culture=neutral, PublicKeyToken=null",
      "LastWriteTime": "2020-10-11T00:54:10.2572862Z"
    },
    {
      "FullName": "netstandard, Version=2.0.0.0, Culture=neutral, PublicKeyToken=cc7b13ffcd2ddd51",
      "LastWriteTime": "2020-03-05T13:37:58Z"
    },
    {
      "FullName": "mscorlib, Version=4.0.0.0, Culture=neutral, PublicKeyToken=b77a5c561934e089",
      "LastWriteTime": "2020-03-05T13:37:58Z"
    },
    {
      "FullName": "UnityEngine.CoreModule, Version=0.0.0.0, Culture=neutral, PublicKeyToken=null",
      "LastWriteTime": "2020-03-05T13:49:44Z"
    },
    {
      "FullName": "Unity.Barracuda, Version=1.1.1.0, Culture=neutral, PublicKeyToken=null",
      "LastWriteTime": "2020-10-11T00:54:12.6495546Z"
    },
    {
      "FullName": "mscorlib, Version=2.0.0.0, Culture=neutral, PublicKeyToken=b77a5c561934e089",
      "LastWriteTime": "2020-03-05T13:37:58Z"
    }
  ],
  "Functions": [
    {
      "FullName": "System.Int32 Unity.Burst.Intrinsics.X86::DoGetCSRTrampoline()",
      "ModuleOptionsHash": 8794384452606821980,
      "ModuleHash": "2e2e26ac7f5b33c959a1be2409cc68b3",
      "LinkName": "CDCA4A5193BE5947",
      "AssemblyDependencyIndices": [
        0,
        1,
        2
      ]
    },
    {
      "FullName": "System.Void Unity.Burst.Intrinsics.X86::DoSetCSRTrampoline(System.Int32)",
      "ModuleOptionsHash": 8794384452606821980,
      "ModuleHash": "e4069e5011ffab57d5c7bbb807904058",
      "LinkName": "801E9A000BB37B05",
      "AssemblyDependencyIndices": [
        0,
        1,
        2
      ]
    },
    {
      "FullName": "System.Void Unity.Jobs.IJobParallelForExtensions/ParallelForJobStruct`1<Unity.Barracuda.BurstCPUOps/VectorBroadcastScaleBiasJob>::Execute(T&,System.IntPtr,System.IntPtr,Unity.Jobs.LowLevel.Unsafe.JobRanges&,System.Int32)",
      "ModuleOptionsHash": 8794384452606821980,
      "ModuleHash": "0160ca624552caea507cbeaadc38c209",
      "LinkName": "6EDF14E2D642A22B",
      "AssemblyDependencyIndices": [
        3,
        4,
        5,
        1,
        2
      ]
    },
    {
      "FullName": "System.Void Unity.Jobs.IJobParallelForExtensions/ParallelForJobStruct`1<Unity.Barracuda.BurstCPUOps/GenericBroadcastMulJob>::Execute(T&,System.IntPtr,System.IntPtr,Unity.Jobs.LowLevel.Unsafe.JobRanges&,System.Int32)",
      "ModuleOptionsHash": 8794384452606821980,
      "ModuleHash": "09db98294d7443b86f631ebd340db2c8",
      "LinkName": "84244FFDA91F7398",
      "AssemblyDependencyIndices": [
        3,
        4,
        5,
        1,
        2
      ]
    },
    {
      "FullName": "System.Void Unity.Jobs.IJobExtensions/JobStruct`1<Unity.Barracuda.BurstCPUOps/VectorBroadcastJob>::Execute(T&,System.IntPtr,System.IntPtr,Unity.Jobs.LowLevel.Unsafe.JobRanges&,System.Int32)",
      "ModuleOptionsHash": 8794384452606821980,
      "ModuleHash": "87d16d19b8a2730e3b72a8d8e152d7bf",
      "LinkName": "D5A0000F5DA19291",
      "AssemblyDependencyIndices": [
        3,
        4,
        5,
        1,
        2
      ]
    },
    {
      "FullName": "System.Void Unity.Jobs.IJobParallelForExtensions/ParallelForJobStruct`1<Unity.Barracuda.BurstCPUOps/MatrixMultiplyJob>::Execute(T&,System.IntPtr,System.IntPtr,Unity.Jobs.LowLevel.Unsafe.JobRanges&,System.Int32)",
      "ModuleOptionsHash": 8794384452606821980,
      "ModuleHash": "d0a1e03e1fedf7e5e9fbf013d5a8ab42",
      "LinkName": "8D6F6DCD15B44F73",
      "AssemblyDependencyIndices": [
        3,
        4,
        5,
        1,
        2
      ]
    }
  ]
}